,
CVS
MOCAversion.c
MOCAversion.o
VARint.sl
afiedt.buf
as
cmd
djr
djr.out
intShipLib.h
intlib.h
makefile
makefile.nt
mf2.out
mk
pckRELlib.h
pmlib.c
pmlib.h
pmlib.h.old
pmlib.o
sqlnet.log
varAllocateCancelledPicks.c
varAllocateCancelledPicks.o
varAllocateCaseByOrder.c
varAllocateCaseByOrder.o
varAllocateResourceLocation.c
varAllocateResourceLocation.o
varAutoFullLoad.c
varAutoFullLoad.o
varCancelPickGroups.c
varCancelPickGroups.o
varChangeAlternatePartNumber.c
varChangeAlternatePartNumber.o
varChangeInventoryAdjOptions.c
varChangeInventoryAdjOptions.o
varChangeWaveParameter.c
varChangeWaveParameter.o
varConcatenateResults.c
varConcatenateResults.o
varConfirmBulkLoad.c
varConfirmBulkLoad.o
varConsolidateShipmentLinesByVolume.c
varConsolidateShipmentLinesByVolume.o
varConsolidateShipmentLinesByWeight.c
varConsolidateShipmentLinesByWeight.o
varCreateAddress.c
varCreateAddress.o
varCreateAlternatePartNumber.c
varCreateAlternatePartNumber.o
varCreateOrderLine.c
varCreateOrderLine.o
varCreateOrderModelEntries.c
varCreateOrderModelEntries.o
varCreateTopoffReplenishment.c
varCreateTopoffReplenishment.o
varCreateTriggeredReplenishment.c
varCreateTriggeredReplenishment.o
varCreateWaveParameter.c
varCreateWaveParameter.o
varCreateWaveParameterDtl.c
varCreateWaveParameterDtl.o
varExpandStatementVariables.c
varExpandStatementVariables.o
varGenerateAuditCounts.c
varGenerateAuditCounts.o
varGenerateBILNumber.c
varGenerateBILNumber.o
varGetBuildLoadSlotInfo.c
varGetBuildLoadSlotInfo.o
varGetCustomerRequirements.c
varGetCustomerRequirements.o
varGetLHTranslatedPartNumber.c
varGetLHTranslatedPartNumber.o
varGetLabelFile.c
varGetLabelFile.o
varGetLabelFormat.c
varGetLabelFormat.o
varGetNextLabel.c
varGetNextLabel.o
varGetPreticketingRequirements.c
varGetPreticketingRequirements.o
varGetRFNextDepositLoad.c
varGetRFNextDepositLoad.o
varGetShippingStagingShipmentBuildCasesLeft.c
varGetShippingStagingShipmentBuildCasesLeft.o
varGetTranslatedPartNumber.c
varGetTranslatedPartNumber.o
varGetWaveLane.c
varGetWaveLane.o
varListAvailableOrder.c_sav
varListAvailableOrderLines.c
varListAvailableOrderLines.o
varListAvailableOrders.c
varListAvailableOrders.o
varListAvailableShipmentLines.c
varListAvailableShipmentLines.o
varListAvailableShipments.c
varListAvailableShipments.o
varListCarrierWave.c
varListCarrierWave.o
varListClosedPmManifests.c
varListClosedPmManifests.o
varListInventoryAdjOptions.c
varListInventoryAdjOptions.o
varListReleasedShipments.c
varListReleasedShipments.c_bkp
varListReleasedShipments.o
varListStagedShipments.c
varListStagedShipments.c_bkp
varListStagedShipments.o
varListWaveableShipmentLines.c
varListWaveableShipmentLines.o
varListWaveableShipments.c
varListWaveableShipments.o
varModListAvailableOrderLines.c
varModListAvailableOrderLines.c_sav
varModListAvailableOrderLines.o
varPlanWaves.c
varPlanWaves.o
varProcessPickReleaseAllocation.c
varProcessPickReleaseAllocation.o
varProcessSplitPickWorks.c
varProcessSplitPickWorks.o
varProduceOracleReport.c
varProduceOracleReport.o
varProducePmPackageLabel.c
varProducePmPackageLabel.o
varPurgeShipments.c
varPurgeShipments.o
varRegisterCountAtLocation.c
varRegisterCountAtLocation.o
varRemoveWaveParameter.c
varRemoveWaveParameter.o
varResetWaveLane.c
varResetWaveLane.o
varSplitShipmentLoad.c
varSplitShipmentLoad.o
varTestVarCommand.c
varTestVarCommand.o
varUnloadShipment.c
varUnloadShipment.o
varUnloadShipmentToPrePaperwork.c
varUnloadShipmentToPrePaperwork.o
varUpdateWaveCaseQuantity.c
varUpdateWaveCaseQuantity.o
varValidateInventorySummaryForLocation.c
varValidateInventorySummaryForLocation.o
varValidateShipmentDropoffAtStop.c
varValidateShipmentDropoffAtStop.o
varValidateUCC128Identifier.c
varValidateUCC128Identifier.o
varVerifyPreticketingRequired.c
varVerifyPreticketingRequired.o
