
CMBCOD     WRKREF     ADDDTE                                                    
---------- ---------- ---------                                                 
CMB4714216 WRK8996571 29-APR-05                                                 
CMB4714219 WRK8996574 29-APR-05                                                 
CMB4669519 WRK8933570 26-APR-05                                                 
CMB4669520 WRK8933571 26-APR-05                                                 
CMB4669521 WRK8933572 26-APR-05                                                 
CMB4669522 WRK8933573 26-APR-05                                                 
CMB4669523 WRK8933574 26-APR-05                                                 
CMB4669524 WRK8933575 26-APR-05                                                 
CMB4669525 WRK8933576 26-APR-05                                                 
CMB4669526 WRK8933577 26-APR-05                                                 
CMB4669527 WRK8933578 26-APR-05                                                 
CMB4669528 WRK8933579 26-APR-05                                                 
CMB4669529 WRK8933580 26-APR-05                                                 
CMB4669530 WRK8933581 26-APR-05                                                 
CMB4669531 WRK8933582 26-APR-05                                                 
CMB4669532 WRK8933583 26-APR-05                                                 
CMB4669533 WRK8933584 26-APR-05                                                 
CMB4669534 WRK8933585 26-APR-05                                                 
CMB4669535 WRK8933586 26-APR-05                                                 
CMB4669536 WRK8933587 26-APR-05                                                 
CMB4669537 WRK8933588 26-APR-05                                                 
CMB4669538 WRK8933589 26-APR-05                                                 
CMB4669539 WRK8933590 26-APR-05                                                 
CMB4669540 WRK8933591 26-APR-05                                                 
CMB4669541 WRK8933592 26-APR-05                                                 
CMB4669542 WRK8933593 26-APR-05                                                 
CMB4669543 WRK8933594 26-APR-05                                                 
CMB4669544 WRK8933595 26-APR-05                                                 
CMB4669545 WRK8933596 26-APR-05                                                 
CMB4718148 WRK9002976 29-APR-05                                                 
CMB4718149 WRK9002977 29-APR-05                                                 
CMB4718150 WRK9002978 29-APR-05                                                 
CMB4718151 WRK9002979 29-APR-05                                                 
CMB4718152 WRK9002980 29-APR-05                                                 
CMB4718153 WRK9002981 29-APR-05                                                 
CMB4718154 WRK9002982 29-APR-05                                                 
CMB4718155 WRK9002983 29-APR-05                                                 
CMB4718156 WRK9002984 29-APR-05                                                 
CMB4718157 WRK9002985 29-APR-05                                                 
CMB4718158 WRK9002986 29-APR-05                                                 
CMB4718166 WRK9002994 29-APR-05                                                 
CMB4718167 WRK9002995 29-APR-05                                                 
CMB4718168 WRK9002996 29-APR-05                                                 
CMB4718169 WRK9002997 29-APR-05                                                 
CMB4718170 WRK9002998 29-APR-05                                                 
CMB4718171 WRK9002999 29-APR-05                                                 
CMB4677146 WRK8944126 26-APR-05                                                 
CMB4677147 WRK8944127 26-APR-05                                                 
CMB4677148 WRK8944128 26-APR-05                                                 
CMB4677149 WRK8944129 26-APR-05                                                 
CMB4677150 WRK8944130 26-APR-05                                                 
CMB4677151 WRK8944131 26-APR-05                                                 
CMB4677152 WRK8944132 26-APR-05                                                 
CMB4677153 WRK8944133 26-APR-05                                                 
CMB4677154 WRK8944134 26-APR-05                                                 
CMB4677155 WRK8944135 26-APR-05                                                 
CMB4677156 WRK8944136 26-APR-05                                                 
CMB4677181 WRK8944161 26-APR-05                                                 
CMB4677182 WRK8944162 26-APR-05                                                 
CMB4677183 WRK8944163 26-APR-05                                                 
CMB4677184 WRK8944164 26-APR-05                                                 
CMB4677185 WRK8944165 26-APR-05                                                 
CMB4677186 WRK8944166 26-APR-05                                                 
CMB4653549 WRK8910806 25-APR-05                                                 
CMB4653550 WRK8910807 25-APR-05                                                 
CMB4653551 WRK8910808 25-APR-05                                                 
CMB4653552 WRK8910809 25-APR-05                                                 
CMB4653553 WRK8910810 25-APR-05                                                 
CMB4653554 WRK8910811 25-APR-05                                                 
CMB4653555 WRK8910812 25-APR-05                                                 
CMB4653556 WRK8910813 25-APR-05                                                 
CMB4653557 WRK8910814 25-APR-05                                                 
CMB4653558 WRK8910815 25-APR-05                                                 
CMB4653559 WRK8910816 25-APR-05                                                 
CMB4653560 WRK8910817 25-APR-05                                                 
CMB4653561 WRK8910818 25-APR-05                                                 
CMB4653562 WRK8910819 25-APR-05                                                 
CMB4653563 WRK8910820 25-APR-05                                                 
CMB4653564 WRK8910821 25-APR-05                                                 
CMB4653565 WRK8910822 25-APR-05                                                 
CMB4653566 WRK8910823 25-APR-05                                                 
CMB4682907 WRK8951029 27-APR-05                                                 
CMB4682906 WRK8951030 27-APR-05                                                 
CMB4718108 WRK9002936 29-APR-05                                                 
CMB4718109 WRK9002937 29-APR-05                                                 
CMB4718110 WRK9002938 29-APR-05                                                 
CMB4718111 WRK9002939 29-APR-05                                                 
CMB4718112 WRK9002940 29-APR-05                                                 
CMB4718113 WRK9002941 29-APR-05                                                 
CMB4718114 WRK9002942 29-APR-05                                                 
CMB4718115 WRK9002943 29-APR-05                                                 
CMB4718116 WRK9002944 29-APR-05                                                 
CMB4718117 WRK9002945 29-APR-05                                                 
CMB4718118 WRK9002946 29-APR-05                                                 
CMB4718119 WRK9002947 29-APR-05                                                 
CMB4718120 WRK9002948 29-APR-05                                                 
CMB4718121 WRK9002949 29-APR-05                                                 
CMB4718135 WRK9002963 29-APR-05                                                 
CMB4718136 WRK9002964 29-APR-05                                                 
CMB4718137 WRK9002965 29-APR-05                                                 
CMB4718138 WRK9002966 29-APR-05                                                 
CMB4718139 WRK9002967 29-APR-05                                                 
CMB4718141 WRK9002969 29-APR-05                                                 
CMB4718142 WRK9002970 29-APR-05                                                 
CMB4718143 WRK9002971 29-APR-05                                                 
CMB4718144 WRK9002972 29-APR-05                                                 
CMB4718145 WRK9002973 29-APR-05                                                 
CMB4718146 WRK9002974 29-APR-05                                                 
CMB4718147 WRK9002975 29-APR-05                                                 
CMB4682905 WRK8951031 27-APR-05                                                 
CMB4661131 WRK8921308 25-APR-05                                                 
CMB4783907 WRK9102701 04-MAY-05                                                 
CMB4717068 WRK9001362 29-APR-05                                                 
CMB4649403 WRK8905940 22-APR-05                                                 
CMB4649425 WRK8905962 22-APR-05                                                 
CMB4717876 WRK9002630 29-APR-05                                                 
CMB4717875 WRK9002631 29-APR-05                                                 
CMB4669807 WRK8933908 26-APR-05                                                 
CMB4669805 WRK8933909 26-APR-05                                                 
CMB4669804 WRK8933910 26-APR-05                                                 
CMB4669803 WRK8933911 26-APR-05                                                 
CMB4669802 WRK8933912 26-APR-05                                                 
CMB4669801 WRK8933913 26-APR-05                                                 
CMB4669800 WRK8933914 26-APR-05                                                 
CMB4768235 WRK9082867 03-MAY-05                                                 
CMB4661339 WRK8921624 25-APR-05                                                 
CMB4653405 WRK8910658 25-APR-05                                                 
CMB4653515 WRK8910771 25-APR-05                                                 
CMB4653517 WRK8910773 25-APR-05                                                 
CMB4677188 WRK8944168 26-APR-05                                                 
CMB4677189 WRK8944169 26-APR-05                                                 
CMB4677190 WRK8944170 26-APR-05                                                 
CMB4677191 WRK8944171 26-APR-05                                                 
CMB4677192 WRK8944172 26-APR-05                                                 
CMB4677193 WRK8944173 26-APR-05                                                 
CMB4677194 WRK8944174 26-APR-05                                                 
CMB4677195 WRK8944175 26-APR-05                                                 
CMB4677196 WRK8944176 26-APR-05                                                 
CMB4677197 WRK8944177 26-APR-05                                                 
CMB4677198 WRK8944178 26-APR-05                                                 
CMB4677199 WRK8944179 26-APR-05                                                 
CMB4677187 WRK8944167 26-APR-05                                                 
CMB4677200 WRK8944180 26-APR-05                                                 
CMB4677201 WRK8944181 26-APR-05                                                 
CMB4677202 WRK8944182 26-APR-05                                                 
CMB4677203 WRK8944183 26-APR-05                                                 
CMB4677204 WRK8944184 26-APR-05                                                 
CMB4677205 WRK8944185 26-APR-05                                                 
CMB4677206 WRK8944186 26-APR-05                                                 
CMB4677207 WRK8944187 26-APR-05                                                 
CMB4677208 WRK8944188 26-APR-05                                                 
CMB4677209 WRK8944189 26-APR-05                                                 
CMB4677210 WRK8944190 26-APR-05                                                 
CMB4677211 WRK8944191 26-APR-05                                                 
CMB4677212 WRK8944192 26-APR-05                                                 
CMB4677213 WRK8944193 26-APR-05                                                 
CMB4677214 WRK8944194 26-APR-05                                                 
CMB4717988 WRK9002816 29-APR-05                                                 
CMB4717989 WRK9002817 29-APR-05                                                 
CMB4717990 WRK9002818 29-APR-05                                                 
CMB4717991 WRK9002819 29-APR-05                                                 
CMB4717992 WRK9002820 29-APR-05                                                 
CMB4717993 WRK9002821 29-APR-05                                                 
CMB4717994 WRK9002822 29-APR-05                                                 
CMB4717995 WRK9002823 29-APR-05                                                 
CMB4717996 WRK9002824 29-APR-05                                                 
CMB4649402 WRK8905939 22-APR-05                                                 
CMB4661304 WRK8921589 25-APR-05                                                 
CMB4661305 WRK8921590 25-APR-05                                                 
CMB4661306 WRK8921591 25-APR-05                                                 
CMB4661307 WRK8921592 25-APR-05                                                 
CMB4778497 WRK9095336 03-MAY-05                                                 
CMB4778498 WRK9095337 03-MAY-05                                                 
CMB4778499 WRK9095338 03-MAY-05                                                 
CMB4778500 WRK9095339 03-MAY-05                                                 
CMB4778501 WRK9095340 03-MAY-05                                                 
CMB4778502 WRK9095341 03-MAY-05                                                 
CMB4778503 WRK9095342 03-MAY-05                                                 
CMB4778504 WRK9095343 03-MAY-05                                                 
CMB4778505 WRK9095344 03-MAY-05                                                 
CMB4778506 WRK9095345 03-MAY-05                                                 
CMB4778507 WRK9095346 03-MAY-05                                                 
CMB4778508 WRK9095347 03-MAY-05                                                 
CMB4778509 WRK9095348 03-MAY-05                                                 
CMB4778510 WRK9095349 03-MAY-05                                                 
CMB4778511 WRK9095350 03-MAY-05                                                 
CMB4777701 WRK9094083 03-MAY-05                                                 
CMB4653416 WRK8910662 25-APR-05                                                 
CMB4653415 WRK8910663 25-APR-05                                                 
CMB4653422 WRK8910670 25-APR-05                                                 
CMB4653420 WRK8910672 25-APR-05                                                 
CMB4653429 WRK8910676 25-APR-05                                                 
CMB4653427 WRK8910677 25-APR-05                                                 
CMB4653426 WRK8910678 25-APR-05                                                 
CMB4653432 WRK8910682 25-APR-05                                                 
CMB4653439 WRK8910685 25-APR-05                                                 
CMB4661302 WRK8921581 25-APR-05                                                 
CMB4682931 WRK8951106 27-APR-05                                                 
CMB4682932 WRK8951107 27-APR-05                                                 
CMB4682933 WRK8951108 27-APR-05                                                 
CMB4682934 WRK8951109 27-APR-05                                                 
CMB4682935 WRK8951110 27-APR-05                                                 
CMB4682936 WRK8951111 27-APR-05                                                 
CMB4682937 WRK8951112 27-APR-05                                                 
CMB4682938 WRK8951113 27-APR-05                                                 
CMB4682939 WRK8951114 27-APR-05                                                 
CMB4682940 WRK8951115 27-APR-05                                                 
CMB4682941 WRK8951116 27-APR-05                                                 
CMB4682942 WRK8951117 27-APR-05                                                 
CMB4682943 WRK8951118 27-APR-05                                                 
CMB4682944 WRK8951119 27-APR-05                                                 
CMB4682945 WRK8951120 27-APR-05                                                 
CMB4682949 WRK8951124 27-APR-05                                                 
CMB4682950 WRK8951125 27-APR-05                                                 
CMB4682951 WRK8951126 27-APR-05                                                 
CMB4716400 WRK9000688 29-APR-05                                                 
CMB4682969 WRK8951144 27-APR-05                                                 
CMB4682970 WRK8951145 27-APR-05                                                 
CMB4682971 WRK8951146 27-APR-05                                                 
CMB4682972 WRK8951147 27-APR-05                                                 
CMB4682973 WRK8951148 27-APR-05                                                 
CMB4682974 WRK8951149 27-APR-05                                                 
CMB4682975 WRK8951150 27-APR-05                                                 
CMB4682976 WRK8951151 27-APR-05                                                 
CMB4682977 WRK8951152 27-APR-05                                                 
CMB4682978 WRK8951153 27-APR-05                                                 
CMB4682979 WRK8951154 27-APR-05                                                 
CMB4682980 WRK8951155 27-APR-05                                                 
CMB4682981 WRK8951156 27-APR-05                                                 
CMB4682982 WRK8951157 27-APR-05                                                 
CMB4682983 WRK8951158 27-APR-05                                                 
CMB4682984 WRK8951159 27-APR-05                                                 
CMB4682985 WRK8951160 27-APR-05                                                 
CMB4682986 WRK8951161 27-APR-05                                                 
CMB4682987 WRK8951162 27-APR-05                                                 
CMB4682988 WRK8951163 27-APR-05                                                 
CMB4682989 WRK8951164 27-APR-05                                                 
CMB4682990 WRK8951165 27-APR-05                                                 
CMB4682991 WRK8951166 27-APR-05                                                 
CMB4717170 WRK9001532 29-APR-05                                                 
CMB4717171 WRK9001533 29-APR-05                                                 
CMB4717172 WRK9001534 29-APR-05                                                 
CMB4664512 WRK8927209 26-APR-05                                                 
CMB4664509 WRK8927212 26-APR-05                                                 
CMB4682952 WRK8951127 27-APR-05                                                 
CMB4682953 WRK8951128 27-APR-05                                                 
CMB4682954 WRK8951129 27-APR-05                                                 
CMB4682955 WRK8951130 27-APR-05                                                 
CMB4682956 WRK8951131 27-APR-05                                                 
CMB4682957 WRK8951132 27-APR-05                                                 
CMB4682959 WRK8951134 27-APR-05                                                 
CMB4682960 WRK8951135 27-APR-05                                                 
CMB4682961 WRK8951136 27-APR-05                                                 
CMB4682962 WRK8951137 27-APR-05                                                 
CMB4682963 WRK8951138 27-APR-05                                                 
CMB4682964 WRK8951139 27-APR-05                                                 
CMB4682965 WRK8951140 27-APR-05                                                 
CMB4682966 WRK8951141 27-APR-05                                                 
CMB4682967 WRK8951142 27-APR-05                                                 
CMB4682968 WRK8951143 27-APR-05                                                 
CMB4356875 WRK8497109 28-MAR-05                                                 
CMB4356874 WRK8497110 28-MAR-05                                                 
CMB4718079 WRK9002906 29-APR-05                                                 
CMB4718080 WRK9002908 29-APR-05                                                 
CMB4718081 WRK9002909 29-APR-05                                                 
CMB4718082 WRK9002910 29-APR-05                                                 
CMB4718083 WRK9002911 29-APR-05                                                 
CMB4718084 WRK9002912 29-APR-05                                                 
CMB4718085 WRK9002913 29-APR-05                                                 
CMB4718086 WRK9002914 29-APR-05                                                 
CMB4718089 WRK9002917 29-APR-05                                                 
CMB4718090 WRK9002918 29-APR-05                                                 
CMB4718091 WRK9002919 29-APR-05                                                 
CMB4718092 WRK9002920 29-APR-05                                                 
CMB4718093 WRK9002921 29-APR-05                                                 
CMB4718094 WRK9002922 29-APR-05                                                 
CMB4718095 WRK9002923 29-APR-05                                                 
CMB4718097 WRK9002924 29-APR-05                                                 
CMB4718098 WRK9002926 29-APR-05                                                 
CMB4718099 WRK9002927 29-APR-05                                                 
CMB4718100 WRK9002928 29-APR-05                                                 
CMB4718101 WRK9002929 29-APR-05                                                 
CMB4718102 WRK9002930 29-APR-05                                                 
CMB4718103 WRK9002931 29-APR-05                                                 
CMB4718104 WRK9002932 29-APR-05                                                 
CMB4718105 WRK9002933 29-APR-05                                                 
CMB4718106 WRK9002934 29-APR-05                                                 
CMB4718107 WRK9002935 29-APR-05                                                 
CMB4778621 WRK9095470 03-MAY-05                                                 
CMB4778622 WRK9095471 03-MAY-05                                                 
CMB4778623 WRK9095472 03-MAY-05                                                 
CMB4778624 WRK9095473 03-MAY-05                                                 
CMB4778625 WRK9095474 03-MAY-05                                                 
CMB4778626 WRK9095475 03-MAY-05                                                 
CMB4778627 WRK9095476 03-MAY-05                                                 
CMB4778628 WRK9095477 03-MAY-05                                                 
CMB4778629 WRK9095478 03-MAY-05                                                 
CMB4778630 WRK9095479 03-MAY-05                                                 
CMB4778631 WRK9095480 03-MAY-05                                                 
CMB4778632 WRK9095481 03-MAY-05                                                 
CMB4778633 WRK9095482 03-MAY-05                                                 
CMB4778634 WRK9095483 03-MAY-05                                                 
CMB4778635 WRK9095484 03-MAY-05                                                 
CMB4778636 WRK9095485 03-MAY-05                                                 
CMB4778637 WRK9095486 03-MAY-05                                                 
CMB4778638 WRK9095487 03-MAY-05                                                 
CMB4778639 WRK9095488 03-MAY-05                                                 
CMB4778640 WRK9095489 03-MAY-05                                                 
CMB4778620 WRK9095469 03-MAY-05                                                 
CMB4778641 WRK9095490 03-MAY-05                                                 
CMB4778642 WRK9095491 03-MAY-05                                                 
CMB4778643 WRK9095492 03-MAY-05                                                 
CMB4778644 WRK9095493 03-MAY-05                                                 
CMB4778645 WRK9095494 03-MAY-05                                                 
CMB4778646 WRK9095495 03-MAY-05                                                 
CMB4677215 WRK8944195 26-APR-05                                                 
CMB4603913 WRK8839455 19-APR-05                                                 
CMB4806848 WRK9131545 05-MAY-05                                                 
CMB4467264 WRK8648866 06-APR-05                                                 
CMB4467263 WRK8648867 06-APR-05                                                 
CMB4806854 WRK9131555 05-MAY-05                                                 
CMB4806860 WRK9131561 05-MAY-05                                                 
CMB4653648 WRK8910905 25-APR-05                                                 
CMB4653649 WRK8910906 25-APR-05                                                 
CMB4653650 WRK8910907 25-APR-05                                                 
CMB4653651 WRK8910908 25-APR-05                                                 
CMB4653652 WRK8910909 25-APR-05                                                 
CMB4653653 WRK8910910 25-APR-05                                                 
CMB4653654 WRK8910911 25-APR-05                                                 
CMB4653655 WRK8910912 25-APR-05                                                 
CMB4653656 WRK8910913 25-APR-05                                                 
CMB4653657 WRK8910914 25-APR-05                                                 
CMB4653658 WRK8910915 25-APR-05                                                 
CMB4653659 WRK8910916 25-APR-05                                                 
CMB4778650 WRK9095499 03-MAY-05                                                 
CMB4778651 WRK9095500 03-MAY-05                                                 
CMB4778652 WRK9095501 03-MAY-05                                                 
CMB4778653 WRK9095502 03-MAY-05                                                 
CMB4778654 WRK9095503 03-MAY-05                                                 
CMB4778655 WRK9095504 03-MAY-05                                                 
CMB4778656 WRK9095505 03-MAY-05                                                 
CMB4778657 WRK9095506 03-MAY-05                                                 
CMB4778658 WRK9095507 03-MAY-05                                                 
CMB4778659 WRK9095508 03-MAY-05                                                 
CMB4778660 WRK9095509 03-MAY-05                                                 
CMB4778661 WRK9095510 03-MAY-05                                                 
CMB4778662 WRK9095511 03-MAY-05                                                 
CMB4778647 WRK9095496 03-MAY-05                                                 
CMB4778663 WRK9095512 03-MAY-05                                                 
CMB4778664 WRK9095513 03-MAY-05                                                 
CMB4778665 WRK9095514 03-MAY-05                                                 
CMB4778666 WRK9095515 03-MAY-05                                                 
CMB4778667 WRK9095516 03-MAY-05                                                 
CMB4778668 WRK9095517 03-MAY-05                                                 
CMB4778669 WRK9095518 03-MAY-05                                                 
CMB4778670 WRK9095519 03-MAY-05                                                 
CMB4778671 WRK9095520 03-MAY-05                                                 
CMB4778648 WRK9095497 03-MAY-05                                                 
CMB4778649 WRK9095498 03-MAY-05                                                 
CMB4778672 WRK9095521 03-MAY-05                                                 
CMB4778673 WRK9095522 03-MAY-05                                                 
CMB4356876 WRK8497108 28-MAR-05                                                 
CMB4512297 WRK8706748 11-APR-05                                                 
CMB4512296 WRK8706749 11-APR-05                                                 
CMB4706718 WRK8983441 28-APR-05                                                 
CMB4718051 WRK9002879 29-APR-05                                                 
CMB4718052 WRK9002880 29-APR-05                                                 
CMB4718053 WRK9002881 29-APR-05                                                 
CMB4718054 WRK9002882 29-APR-05                                                 
CMB4718055 WRK9002883 29-APR-05                                                 
CMB4718056 WRK9002884 29-APR-05                                                 
CMB4718057 WRK9002885 29-APR-05                                                 
CMB4718058 WRK9002886 29-APR-05                                                 
CMB4718059 WRK9002887 29-APR-05                                                 
CMB4718065 WRK9002893 29-APR-05                                                 
CMB4718066 WRK9002894 29-APR-05                                                 
CMB4718067 WRK9002895 29-APR-05                                                 
CMB4718068 WRK9002896 29-APR-05                                                 
CMB4718069 WRK9002897 29-APR-05                                                 
CMB4718070 WRK9002898 29-APR-05                                                 
CMB4718071 WRK9002899 29-APR-05                                                 
CMB4718072 WRK9002900 29-APR-05                                                 
CMB4718073 WRK9002901 29-APR-05                                                 
CMB4718074 WRK9002902 29-APR-05                                                 
CMB4718075 WRK9002903 29-APR-05                                                 
CMB4718076 WRK9002904 29-APR-05                                                 
CMB4718077 WRK9002905 29-APR-05                                                 
CMB4778481 WRK9095320 03-MAY-05                                                 
CMB4778590 WRK9095434 03-MAY-05                                                 
CMB4778588 WRK9095435 03-MAY-05                                                 
CMB4778587 WRK9095436 03-MAY-05                                                 
CMB4778586 WRK9095437 03-MAY-05                                                 
CMB4778585 WRK9095438 03-MAY-05                                                 
CMB4778584 WRK9095439 03-MAY-05                                                 
CMB4716568 WRK9000856 29-APR-05                                                 
CMB4778598 WRK9095447 03-MAY-05                                                 
CMB4778599 WRK9095448 03-MAY-05                                                 
CMB4778600 WRK9095449 03-MAY-05                                                 
CMB4778601 WRK9095450 03-MAY-05                                                 
CMB4778602 WRK9095451 03-MAY-05                                                 
CMB4778603 WRK9095452 03-MAY-05                                                 
CMB4778604 WRK9095453 03-MAY-05                                                 
CMB4778605 WRK9095454 03-MAY-05                                                 
CMB4778606 WRK9095455 03-MAY-05                                                 
CMB4778475 WRK9095315 03-MAY-05                                                 
CMB4778474 WRK9095316 03-MAY-05                                                 
CMB4778607 WRK9095456 03-MAY-05                                                 
CMB4778608 WRK9095457 03-MAY-05                                                 
CMB4778609 WRK9095458 03-MAY-05                                                 
CMB4778610 WRK9095459 03-MAY-05                                                 
CMB4778611 WRK9095460 03-MAY-05                                                 
CMB4778612 WRK9095461 03-MAY-05                                                 
CMB4778613 WRK9095462 03-MAY-05                                                 
CMB4778614 WRK9095463 03-MAY-05                                                 
CMB4778615 WRK9095464 03-MAY-05                                                 
CMB4778616 WRK9095465 03-MAY-05                                                 
CMB4778617 WRK9095466 03-MAY-05                                                 
CMB4778618 WRK9095467 03-MAY-05                                                 
CMB4778619 WRK9095468 03-MAY-05                                                 
CMB4653567 WRK8910824 25-APR-05                                                 
CMB4653568 WRK8910825 25-APR-05                                                 
CMB4653569 WRK8910826 25-APR-05                                                 
CMB4653570 WRK8910827 25-APR-05                                                 
CMB4653571 WRK8910828 25-APR-05                                                 
CMB4653573 WRK8910830 25-APR-05                                                 
CMB4653574 WRK8910831 25-APR-05                                                 
CMB4653575 WRK8910832 25-APR-05                                                 
CMB4653576 WRK8910833 25-APR-05                                                 
CMB4653577 WRK8910834 25-APR-05                                                 
CMB4653578 WRK8910835 25-APR-05                                                 
CMB4653580 WRK8910837 25-APR-05                                                 
CMB4653581 WRK8910838 25-APR-05                                                 
CMB4653582 WRK8910839 25-APR-05                                                 
CMB4653583 WRK8910840 25-APR-05                                                 
CMB4653584 WRK8910841 25-APR-05                                                 
CMB4653589 WRK8910846 25-APR-05                                                 
CMB4653590 WRK8910847 25-APR-05                                                 
CMB4653591 WRK8910848 25-APR-05                                                 
CMB4653592 WRK8910849 25-APR-05                                                 
CMB4653593 WRK8910850 25-APR-05                                                 
CMB4516997 WRK8712152 11-APR-05                                                 
CMB4516998 WRK8712153 11-APR-05                                                 
CMB4516999 WRK8712154 11-APR-05                                                 
CMB4517000 WRK8712155 11-APR-05                                                 
CMB4517001 WRK8712156 11-APR-05                                                 
CMB4517002 WRK8712157 11-APR-05                                                 
CMB4517003 WRK8712158 11-APR-05                                                 
CMB4517004 WRK8712159 11-APR-05                                                 
CMB4517005 WRK8712160 11-APR-05                                                 
CMB4780716 WRK9097989 03-MAY-05                                                 
CMB4780717 WRK9097990 03-MAY-05                                                 
CMB4780718 WRK9097991 03-MAY-05                                                 
CMB4780719 WRK9097992 03-MAY-05                                                 
CMB4780720 WRK9097993 03-MAY-05                                                 
CMB4780721 WRK9097994 03-MAY-05                                                 
CMB4780722 WRK9097995 03-MAY-05                                                 
CMB4777956 WRK9094343 03-MAY-05                                                 
CMB4718025 WRK9002853 29-APR-05                                                 
CMB4718026 WRK9002854 29-APR-05                                                 
CMB4718027 WRK9002855 29-APR-05                                                 
CMB4718028 WRK9002856 29-APR-05                                                 
CMB4718029 WRK9002857 29-APR-05                                                 
CMB4718030 WRK9002858 29-APR-05                                                 
CMB4718032 WRK9002860 29-APR-05                                                 
CMB4718033 WRK9002861 29-APR-05                                                 
CMB4718034 WRK9002862 29-APR-05                                                 
CMB4718035 WRK9002863 29-APR-05                                                 
CMB4718036 WRK9002864 29-APR-05                                                 
CMB4718037 WRK9002865 29-APR-05                                                 
CMB4718038 WRK9002866 29-APR-05                                                 
CMB4718039 WRK9002867 29-APR-05                                                 
CMB4718040 WRK9002868 29-APR-05                                                 
CMB4718041 WRK9002869 29-APR-05                                                 
CMB4718043 WRK9002871 29-APR-05                                                 
CMB4718044 WRK9002872 29-APR-05                                                 
CMB4718045 WRK9002873 29-APR-05                                                 
CMB4718046 WRK9002874 29-APR-05                                                 
CMB4718047 WRK9002875 29-APR-05                                                 
CMB4718048 WRK9002876 29-APR-05                                                 
CMB4718049 WRK9002877 29-APR-05                                                 
CMB4718050 WRK9002878 29-APR-05                                                 
CMB4778679 WRK9095555 03-MAY-05                                                 
CMB4778680 WRK9095556 03-MAY-05                                                 
CMB4778681 WRK9095557 03-MAY-05                                                 
CMB4778682 WRK9095558 03-MAY-05                                                 
CMB4778685 WRK9095561 03-MAY-05                                                 
CMB4778687 WRK9095562 03-MAY-05                                                 
CMB4778686 WRK9095563 03-MAY-05                                                 
CMB4717227 WRK9001589 29-APR-05                                                 
CMB4717237 WRK9001599 29-APR-05                                                 
CMB4717238 WRK9001600 29-APR-05                                                 
CMB4717239 WRK9001601 29-APR-05                                                 
CMB4717240 WRK9001602 29-APR-05                                                 
CMB4717241 WRK9001603 29-APR-05                                                 
CMB4717242 WRK9001604 29-APR-05                                                 
CMB4778566 WRK9095405 03-MAY-05                                                 
CMB4778567 WRK9095406 03-MAY-05                                                 
CMB4778568 WRK9095407 03-MAY-05                                                 
CMB4778569 WRK9095408 03-MAY-05                                                 
CMB4778570 WRK9095409 03-MAY-05                                                 
CMB4778571 WRK9095410 03-MAY-05                                                 
CMB4778572 WRK9095411 03-MAY-05                                                 
CMB4778573 WRK9095412 03-MAY-05                                                 
CMB4778574 WRK9095413 03-MAY-05                                                 
CMB4778575 WRK9095414 03-MAY-05                                                 
CMB4778576 WRK9095415 03-MAY-05                                                 
CMB4778577 WRK9095416 03-MAY-05                                                 
CMB4778578 WRK9095417 03-MAY-05                                                 
CMB4778579 WRK9095418 03-MAY-05                                                 
CMB4778580 WRK9095419 03-MAY-05                                                 
CMB4778581 WRK9095420 03-MAY-05                                                 
CMB4778540 WRK9095379 03-MAY-05                                                 
CMB4778541 WRK9095380 03-MAY-05                                                 
CMB4778542 WRK9095381 03-MAY-05                                                 
CMB4778543 WRK9095382 03-MAY-05                                                 
CMB4778544 WRK9095383 03-MAY-05                                                 
CMB4778545 WRK9095384 03-MAY-05                                                 
CMB4778546 WRK9095385 03-MAY-05                                                 
CMB4778547 WRK9095386 03-MAY-05                                                 
CMB4778548 WRK9095387 03-MAY-05                                                 
CMB4778549 WRK9095388 03-MAY-05                                                 
CMB4778539 WRK9095378 03-MAY-05                                                 
CMB4778550 WRK9095389 03-MAY-05                                                 
CMB4778551 WRK9095390 03-MAY-05                                                 
CMB4778552 WRK9095391 03-MAY-05                                                 
CMB4778553 WRK9095392 03-MAY-05                                                 
CMB4778554 WRK9095393 03-MAY-05                                                 
CMB4778555 WRK9095394 03-MAY-05                                                 
CMB4778556 WRK9095395 03-MAY-05                                                 
CMB4778557 WRK9095396 03-MAY-05                                                 
CMB4778558 WRK9095397 03-MAY-05                                                 
CMB4778559 WRK9095398 03-MAY-05                                                 
CMB4778560 WRK9095399 03-MAY-05                                                 
CMB4778561 WRK9095400 03-MAY-05                                                 
CMB4778562 WRK9095401 03-MAY-05                                                 
CMB4778563 WRK9095402 03-MAY-05                                                 
CMB4778564 WRK9095403 03-MAY-05                                                 
CMB4778565 WRK9095404 03-MAY-05                                                 
CMB4604194 WRK8839736 19-APR-05                                                 
CMB4717166 WRK9001528 29-APR-05                                                 
CMB4778591 WRK9095440 03-MAY-05                                                 
CMB4778676 WRK9095525 03-MAY-05                                                 
CMB4778440 WRK9095226 03-MAY-05                                                 
CMB4778441 WRK9095227 03-MAY-05                                                 
CMB4778442 WRK9095228 03-MAY-05                                                 
CMB4778443 WRK9095229 03-MAY-05                                                 
CMB4778444 WRK9095230 03-MAY-05                                                 
CMB4778445 WRK9095231 03-MAY-05                                                 
CMB4778446 WRK9095232 03-MAY-05                                                 
CMB4778447 WRK9095233 03-MAY-05                                                 
CMB4778449 WRK9095235 03-MAY-05                                                 
CMB4778450 WRK9095236 03-MAY-05                                                 
CMB4653610 WRK8910867 25-APR-05                                                 
CMB4653611 WRK8910868 25-APR-05                                                 
CMB4653612 WRK8910869 25-APR-05                                                 
CMB4653613 WRK8910870 25-APR-05                                                 
CMB4653614 WRK8910871 25-APR-05                                                 
CMB4653615 WRK8910872 25-APR-05                                                 
CMB4653616 WRK8910873 25-APR-05                                                 
CMB4653594 WRK8910851 25-APR-05                                                 
CMB4653599 WRK8910856 25-APR-05                                                 
CMB4653603 WRK8910860 25-APR-05                                                 
CMB4653604 WRK8910861 25-APR-05                                                 
CMB4653607 WRK8910864 25-APR-05                                                 
CMB4653609 WRK8910866 25-APR-05                                                 
CMB4653617 WRK8910874 25-APR-05                                                 
CMB4653618 WRK8910875 25-APR-05                                                 
CMB4653619 WRK8910876 25-APR-05                                                 
CMB4778413 WRK9095149 03-MAY-05                                                 
CMB4778412 WRK9095150 03-MAY-05                                                 
CMB4778411 WRK9095151 03-MAY-05                                                 
CMB4778410 WRK9095152 03-MAY-05                                                 
CMB4717997 WRK9002825 29-APR-05                                                 
CMB4717998 WRK9002826 29-APR-05                                                 
CMB4717999 WRK9002827 29-APR-05                                                 
CMB4718001 WRK9002829 29-APR-05                                                 
CMB4718002 WRK9002830 29-APR-05                                                 
CMB4718003 WRK9002831 29-APR-05                                                 
CMB4718004 WRK9002832 29-APR-05                                                 
CMB4718005 WRK9002833 29-APR-05                                                 
CMB4718006 WRK9002834 29-APR-05                                                 
CMB4718007 WRK9002835 29-APR-05                                                 
CMB4718008 WRK9002836 29-APR-05                                                 
CMB4718009 WRK9002837 29-APR-05                                                 
CMB4718010 WRK9002838 29-APR-05                                                 
CMB4718011 WRK9002839 29-APR-05                                                 
CMB4718012 WRK9002840 29-APR-05                                                 
CMB4718013 WRK9002841 29-APR-05                                                 
CMB4718015 WRK9002843 29-APR-05                                                 
CMB4718016 WRK9002844 29-APR-05                                                 
CMB4718017 WRK9002845 29-APR-05                                                 
CMB4718018 WRK9002846 29-APR-05                                                 
CMB4718019 WRK9002847 29-APR-05                                                 
CMB4718020 WRK9002848 29-APR-05                                                 
CMB4718021 WRK9002849 29-APR-05                                                 
CMB4718022 WRK9002850 29-APR-05                                                 
CMB4718023 WRK9002851 29-APR-05                                                 
CMB4778417 WRK9095156 03-MAY-05                                                 
CMB4778466 WRK9095301 03-MAY-05                                                 
CMB4778465 WRK9095302 03-MAY-05                                                 
CMB4778464 WRK9095303 03-MAY-05                                                 
CMB4778463 WRK9095304 03-MAY-05                                                 
CMB4778477 WRK9095313 03-MAY-05                                                 
CMB4778476 WRK9095314 03-MAY-05                                                 
CMB4653448 WRK8910697 25-APR-05                                                 
CMB4653447 WRK8910698 25-APR-05                                                 
CMB4653460 WRK8910706 25-APR-05                                                 
CMB4653459 WRK8910707 25-APR-05                                                 
CMB4653458 WRK8910708 25-APR-05                                                 
CMB4653457 WRK8910709 25-APR-05                                                 
CMB4653465 WRK8910714 25-APR-05                                                 
CMB4653464 WRK8910715 25-APR-05                                                 
CMB4653463 WRK8910716 25-APR-05                                                 
CMB4653623 WRK8910880 25-APR-05                                                 
CMB4653624 WRK8910881 25-APR-05                                                 
CMB4653625 WRK8910882 25-APR-05                                                 
CMB4653626 WRK8910883 25-APR-05                                                 
CMB4653627 WRK8910884 25-APR-05                                                 
CMB4653628 WRK8910885 25-APR-05                                                 
CMB4653629 WRK8910886 25-APR-05                                                 
CMB4653630 WRK8910887 25-APR-05                                                 
CMB4653631 WRK8910888 25-APR-05                                                 
CMB4653632 WRK8910889 25-APR-05                                                 
CMB4653633 WRK8910890 25-APR-05                                                 
CMB4653634 WRK8910891 25-APR-05                                                 
CMB4653635 WRK8910892 25-APR-05                                                 
CMB4653636 WRK8910893 25-APR-05                                                 
CMB4653637 WRK8910894 25-APR-05                                                 
CMB4653638 WRK8910895 25-APR-05                                                 
CMB4653639 WRK8910896 25-APR-05                                                 
CMB4653640 WRK8910897 25-APR-05                                                 
CMB4653641 WRK8910898 25-APR-05                                                 
CMB4653642 WRK8910899 25-APR-05                                                 
CMB4653643 WRK8910900 25-APR-05                                                 
CMB4653644 WRK8910901 25-APR-05                                                 
CMB4653645 WRK8910902 25-APR-05                                                 
CMB4653646 WRK8910903 25-APR-05                                                 
CMB4653647 WRK8910904 25-APR-05                                                 
CMB4778592 WRK9095441 03-MAY-05                                                 
CMB4682640 WRK8950410 27-APR-05                                                 
CMB4778512 WRK9095351 03-MAY-05                                                 
CMB4778513 WRK9095352 03-MAY-05                                                 
CMB4778514 WRK9095353 03-MAY-05                                                 
CMB4778515 WRK9095354 03-MAY-05                                                 
CMB4778516 WRK9095355 03-MAY-05                                                 
CMB4778517 WRK9095356 03-MAY-05                                                 
CMB4778518 WRK9095357 03-MAY-05                                                 
CMB4778519 WRK9095358 03-MAY-05                                                 
CMB4778520 WRK9095359 03-MAY-05                                                 
CMB4778521 WRK9095360 03-MAY-05                                                 
CMB4778522 WRK9095361 03-MAY-05                                                 
CMB4778523 WRK9095362 03-MAY-05                                                 
CMB4778524 WRK9095363 03-MAY-05                                                 
CMB4778525 WRK9095364 03-MAY-05                                                 
CMB4778526 WRK9095365 03-MAY-05                                                 
CMB4778527 WRK9095366 03-MAY-05                                                 
CMB4778528 WRK9095367 03-MAY-05                                                 
CMB4778529 WRK9095368 03-MAY-05                                                 
CMB4778530 WRK9095369 03-MAY-05                                                 
CMB4778531 WRK9095370 03-MAY-05                                                 
CMB4778532 WRK9095371 03-MAY-05                                                 
CMB4778533 WRK9095372 03-MAY-05                                                 
CMB4778534 WRK9095373 03-MAY-05                                                 
CMB4778535 WRK9095374 03-MAY-05                                                 
CMB4778536 WRK9095375 03-MAY-05                                                 
CMB4778537 WRK9095376 03-MAY-05                                                 
CMB4778538 WRK9095377 03-MAY-05                                                 
CMB4661301 WRK8921580 25-APR-05                                                 
CMB4669514 WRK8933565 26-APR-05                                                 
CMB4669515 WRK8933566 26-APR-05                                                 
CMB4669516 WRK8933567 26-APR-05                                                 
CMB4669517 WRK8933568 26-APR-05                                                 
CMB4669518 WRK8933569 26-APR-05                                                 
CMB4653662 WRK8910919 25-APR-05                                                 
CMB4653663 WRK8910920 25-APR-05                                                 
CMB4653665 WRK8910922 25-APR-05                                                 
CMB4814723 WRK9142009 06-MAY-05                                                 
CMB4814724 WRK9142010 06-MAY-05                                                 
CMB4814725 WRK9142011 06-MAY-05                                                 
CMB4814726 WRK9142012 06-MAY-05                                                 
CMB4814727 WRK9142013 06-MAY-05                                                 
CMB4814728 WRK9142014 06-MAY-05                                                 
CMB4814729 WRK9142015 06-MAY-05                                                 
CMB4814730 WRK9142016 06-MAY-05                                                 
CMB4814731 WRK9142017 06-MAY-05                                                 
CMB4814732 WRK9142018 06-MAY-05                                                 
CMB4352671 WRK8489999 28-MAR-05                                                 
CMB4778674 WRK9095523 03-MAY-05                                                 
CMB4778675 WRK9095524 03-MAY-05                                                 
CMB4778678 WRK9095527 03-MAY-05                                                 
CMB4628654 WRK8876690 20-APR-05                                                 
CMB4628653 WRK8876689 20-APR-05                                                 
CMB4778684 WRK9095560 03-MAY-05                                                 
CMB4661316 WRK8921601 25-APR-05                                                 
CMB4661318 WRK8921603 25-APR-05                                                 
CMB4661319 WRK8921604 25-APR-05                                                 
CMB4661320 WRK8921605 25-APR-05                                                 
CMB4661321 WRK8921606 25-APR-05                                                 
CMB4661323 WRK8921608 25-APR-05                                                 
CMB4661324 WRK8921609 25-APR-05                                                 
CMB4661325 WRK8921610 25-APR-05                                                 
CMB4661326 WRK8921611 25-APR-05                                                 
CMB4661327 WRK8921612 25-APR-05                                                 
CMB4661328 WRK8921613 25-APR-05                                                 
CMB4661329 WRK8921614 25-APR-05                                                 
CMB4661330 WRK8921615 25-APR-05                                                 
CMB4661332 WRK8921617 25-APR-05                                                 
CMB4356878 WRK8497112 28-MAR-05                                                 
CMB4356879 WRK8497113 28-MAR-05                                                 
CMB4356881 WRK8497115 28-MAR-05                                                 
CMB4356882 WRK8497116 28-MAR-05                                                 
CMB4356883 WRK8497117 28-MAR-05                                                 
CMB4669546 WRK8933597 26-APR-05                                                 
CMB4669547 WRK8933598 26-APR-05                                                 
CMB4669548 WRK8933599 26-APR-05                                                 
CMB4669549 WRK8933600 26-APR-05                                                 
CMB4669550 WRK8933601 26-APR-05                                                 
CMB4669551 WRK8933602 26-APR-05                                                 
CMB4669552 WRK8933603 26-APR-05                                                 
CMB4669553 WRK8933604 26-APR-05                                                 
CMB4669554 WRK8933605 26-APR-05                                                 
CMB4669555 WRK8933606 26-APR-05                                                 
CMB4669556 WRK8933607 26-APR-05                                                 
CMB4669557 WRK8933608 26-APR-05                                                 
CMB4717243 WRK9001605 29-APR-05                                                 
CMB4717245 WRK9001606 29-APR-05                                                 
CMB4717246 WRK9001607 29-APR-05                                                 
CMB4717247 WRK9001609 29-APR-05                                                 
CMB4717248 WRK9001610 29-APR-05                                                 
CMB4717249 WRK9001611 29-APR-05                                                 
CMB4717250 WRK9001612 29-APR-05                                                 
CMB4717251 WRK9001613 29-APR-05                                                 
CMB4717252 WRK9001614 29-APR-05                                                 
CMB4717253 WRK9001615 29-APR-05                                                 
CMB4717254 WRK9001616 29-APR-05                                                 
CMB4717258 WRK9001620 29-APR-05                                                 
CMB4517006 WRK8712161 11-APR-05                                                 
CMB4517007 WRK8712162 11-APR-05                                                 
CMB4517008 WRK8712163 11-APR-05                                                 
CMB4517009 WRK8712164 11-APR-05                                                 
CMB4517010 WRK8712165 11-APR-05                                                 
CMB4517011 WRK8712166 11-APR-05                                                 
CMB4517012 WRK8712167 11-APR-05                                                 
CMB4517013 WRK8712168 11-APR-05                                                 
CMB4517014 WRK8712169 11-APR-05                                                 
CMB4517016 WRK8712171 11-APR-05                                                 
CMB4517017 WRK8712172 11-APR-05                                                 
CMB4517018 WRK8712173 11-APR-05                                                 
CMB4517019 WRK8712174 11-APR-05                                                 
CMB4517020 WRK8712175 11-APR-05                                                 
CMB4517021 WRK8712176 11-APR-05                                                 
CMB4517022 WRK8712177 11-APR-05                                                 
CMB4517023 WRK8712178 11-APR-05                                                 
CMB4517024 WRK8712179 11-APR-05                                                 
CMB4517025 WRK8712180 11-APR-05                                                 
CMB4517026 WRK8712181 11-APR-05                                                 
CMB4517027 WRK8712182 11-APR-05                                                 
CMB4517028 WRK8712183 11-APR-05                                                 
CMB4517029 WRK8712184 11-APR-05                                                 
CMB4517030 WRK8712185 11-APR-05                                                 
CMB4517031 WRK8712186 11-APR-05                                                 
CMB4716434 WRK9000723 29-APR-05                                                 
CMB4715326 WRK8999073 29-APR-05                                                 
CMB4466488 WRK8648090 06-APR-05                                                 
CMB4466487 WRK8648091 06-APR-05                                                 
CMB4768211 WRK9082843 03-MAY-05                                                 
CMB4682640 WRK3660325 27-APR-05                                                 
CMB4682640 WRK3660326 27-APR-05                                                 
CMB4682640 WRK3660327 27-APR-05                                                 
CMB4682640 WRK3660328 27-APR-05                                                 
CMB4682640 WRK3660329 27-APR-05                                                 
CMB4682640 WRK3660330 27-APR-05                                                 
CMB4682640 WRK3660331 27-APR-05                                                 
CMB4682640 WRK3660332 27-APR-05                                                 
CMB4682640 WRK3660333 27-APR-05                                                 
CMB4682640 WRK3660334 27-APR-05                                                 
CMB4682640 WRK3660335 27-APR-05                                                 
CMB4682640 WRK3660336 27-APR-05                                                 
CMB4682640 WRK3660337 27-APR-05                                                 
CMB4682640 WRK3660338 27-APR-05                                                 
CMB4682640 WRK3660339 27-APR-05                                                 
CMB4682640 WRK3660340 27-APR-05                                                 
CMB4682640 WRK3660341 27-APR-05                                                 
CMB4682640 WRK3660342 27-APR-05                                                 
CMB4682640 WRK3660343 27-APR-05                                                 
CMB4682640 WRK3660344 27-APR-05                                                 
CMB4682640 WRK3660345 27-APR-05                                                 
CMB4682640 WRK3660346 27-APR-05                                                 
CMB4682640 WRK3660347 27-APR-05                                                 
CMB4682640 WRK3660348 27-APR-05                                                 
CMB4682640 WRK3660349 27-APR-05                                                 
CMB4682640 WRK3660350 27-APR-05                                                 
CMB4682640 WRK3660298 27-APR-05                                                 
CMB4682640 WRK3660299 27-APR-05                                                 
CMB4682640 WRK3660300 27-APR-05                                                 
CMB4682640 WRK3660301 27-APR-05                                                 
CMB4682640 WRK3660302 27-APR-05                                                 
CMB4682640 WRK3660303 27-APR-05                                                 
CMB4682640 WRK3660304 27-APR-05                                                 
CMB4682640 WRK3660305 27-APR-05                                                 
CMB4682640 WRK3660306 27-APR-05                                                 
CMB4682640 WRK3660307 27-APR-05                                                 
CMB4682640 WRK3660308 27-APR-05                                                 
CMB4682640 WRK3660309 27-APR-05                                                 
CMB4682640 WRK3660310 27-APR-05                                                 
CMB4682640 WRK3660311 27-APR-05                                                 
CMB4682640 WRK3660312 27-APR-05                                                 
CMB4682640 WRK3660313 27-APR-05                                                 
CMB4682640 WRK3660314 27-APR-05                                                 
CMB4682640 WRK3660315 27-APR-05                                                 
CMB4682640 WRK3660316 27-APR-05                                                 
CMB4682640 WRK3660317 27-APR-05                                                 
CMB4682640 WRK3660318 27-APR-05                                                 
CMB4682640 WRK3660319 27-APR-05                                                 
CMB4682640 WRK3660320 27-APR-05                                                 
CMB4682640 WRK3660321 27-APR-05                                                 
CMB4682640 WRK3660322 27-APR-05                                                 
CMB4682640 WRK3660323 27-APR-05                                                 
CMB4682640 WRK3660324 27-APR-05                                                 
CMB4682640 WRK3660272 27-APR-05                                                 
CMB4682640 WRK3660273 27-APR-05                                                 
CMB4682640 WRK3660274 27-APR-05                                                 
CMB4682640 WRK3660275 27-APR-05                                                 
CMB4682640 WRK3660276 27-APR-05                                                 
CMB4682640 WRK3660277 27-APR-05                                                 
CMB4682640 WRK3660278 27-APR-05                                                 
CMB4682640 WRK3660279 27-APR-05                                                 
CMB4682640 WRK3660280 27-APR-05                                                 
CMB4682640 WRK3660281 27-APR-05                                                 
CMB4682640 WRK3660282 27-APR-05                                                 
CMB4682640 WRK3660283 27-APR-05                                                 
CMB4682640 WRK3660284 27-APR-05                                                 
CMB4682640 WRK3660285 27-APR-05                                                 
CMB4682640 WRK3660286 27-APR-05                                                 
CMB4682640 WRK3660287 27-APR-05                                                 
CMB4682640 WRK3660288 27-APR-05                                                 
CMB4682640 WRK3660289 27-APR-05                                                 
CMB4682640 WRK3660290 27-APR-05                                                 
CMB4682640 WRK3660291 27-APR-05                                                 
CMB4682640 WRK3660292 27-APR-05                                                 
CMB4682640 WRK3660293 27-APR-05                                                 
CMB4682640 WRK3660294 27-APR-05                                                 
CMB4682640 WRK3660271 27-APR-05                                                 
CMB4682640 WRK3660295 27-APR-05                                                 
CMB4682640 WRK3660296 27-APR-05                                                 
CMB4682640 WRK3660297 27-APR-05                                                 
CMB4682640 WRK3660261 07-DEC-05                                                 

847 rows selected.

