SQL> select sysdate from dual
  2  /

SYSDATE                                                                         
---------                                                                       
20-FEB-02                                                                       

SQL> 
SQL> 
SQL> 